[demo.naksoid.com/elephant-v1.2.0/theme-4/modals.html]
[backblue.gif]
[fade.gif]
[index.html]
[demo.naksoid.com/elephant/img/ae165ef33d137d3f18b7707466aa774d.jpg]
[demo.naksoid.com/elephant-v1.2.0/theme-4/apple-touch-icon.png]
[demo.naksoid.com/elephant-v1.2.0/theme-4/favicon-32x32.png]
[demo.naksoid.com/elephant-v1.2.0/theme-4/favicon-16x16.png]
[demo.naksoid.com/elephant-v1.2.0/theme-4/manifest.json]
[demo.naksoid.com/elephant-v1.2.0/theme-4/css/vendor.min.css]
[demo.naksoid.com/elephant-v1.2.0/theme-4/css/elephant.min.css]
[demo.naksoid.com/elephant-v1.2.0/theme-4/css/application.min.css]
[demo.naksoid.com/elephant-v1.2.0/theme-4/index.html]
[demo.naksoid.com/elephant-v1.2.0/theme-4/img/0180441436.jpg]
[demo.naksoid.com/elephant-v1.2.0/theme-4/compose.html]
[demo.naksoid.com/elephant-v1.2.0/theme-4/img/0299419341.jpg]
[demo.naksoid.com/elephant-v1.2.0/theme-4/img/0310728269.jpg]
[demo.naksoid.com/elephant-v1.2.0/theme-4/img/0460697039.jpg]
[demo.naksoid.com/elephant-v1.2.0/theme-4/img/0531871454.jpg]
[demo.naksoid.com/elephant-v1.2.0/theme-4/img/0601274412.jpg]
[demo.naksoid.com/elephant-v1.2.0/theme-4/img/0777931269.jpg]
[demo.naksoid.com/elephant-v1.2.0/theme-4/img/0872116906.jpg]
[demo.naksoid.com/elephant-v1.2.0/theme-4/img/0980726243.jpg]
[demo.naksoid.com/elephant-v1.2.0/theme-4/contacts.html]
[demo.naksoid.com/elephant-v1.2.0/theme-4/profile.html]
[demo.naksoid.com/elephant-v1.2.0/theme-4/login-1.html]
[demo.naksoid.com/elephant-v1.2.0/theme-4/dashboard-1.html]
[demo.naksoid.com/elephant-v1.2.0/theme-4/dashboard-2.html]
[demo.naksoid.com/elephant-v1.2.0/theme-4/dashboard-3.html]
[demo.naksoid.com/elephant-v1.2.0/theme-4/widgets.html]
[demo.naksoid.com/elephant-v1.2.0/theme-4/page-layouts.html]
[demo.naksoid.com/elephant-v1.2.0/theme-4/arrows.html]
[demo.naksoid.com/elephant-v1.2.0/theme-4/badges.html]
[demo.naksoid.com/elephant-v1.2.0/theme-4/buttons.html]
[demo.naksoid.com/elephant-v1.2.0/theme-4/cards.html]
[demo.naksoid.com/elephant-v1.2.0/theme-4/dividers.html]
[demo.naksoid.com/elephant-v1.2.0/theme-4/files.html]
[demo.naksoid.com/elephant-v1.2.0/theme-4/flags.html]
[demo.naksoid.com/elephant-v1.2.0/theme-4/grid-system.html]
[demo.naksoid.com/elephant-v1.2.0/theme-4/icons.html]
[demo.naksoid.com/elephant-v1.2.0/theme-4/labels.html]
[demo.naksoid.com/elephant-v1.2.0/theme-4/lists.html]
[demo.naksoid.com/elephant-v1.2.0/theme-4/pricing-cards.html]
[demo.naksoid.com/elephant-v1.2.0/theme-4/progress-bars.html]
[demo.naksoid.com/elephant-v1.2.0/theme-4/spinners.html]
[demo.naksoid.com/elephant-v1.2.0/theme-4/tabs.html]
[demo.naksoid.com/elephant-v1.2.0/theme-4/toastr.html]
[demo.naksoid.com/elephant-v1.2.0/theme-4/typography.html]
[demo.naksoid.com/elephant-v1.2.0/theme-4/cropper.html]
[demo.naksoid.com/elephant-v1.2.0/theme-4/form-controls.html]
[demo.naksoid.com/elephant-v1.2.0/theme-4/form-layouts.html]
[demo.naksoid.com/elephant-v1.2.0/theme-4/form-validation.html]
[demo.naksoid.com/elephant-v1.2.0/theme-4/form-wizard.html]
[demo.naksoid.com/elephant-v1.2.0/theme-4/input-mask.html]
[demo.naksoid.com/elephant-v1.2.0/theme-4/md-form-controls.html]
[demo.naksoid.com/elephant-v1.2.0/theme-4/md-form-validation.html]
[demo.naksoid.com/elephant-v1.2.0/theme-4/pickers.html]
[demo.naksoid.com/elephant-v1.2.0/theme-4/select2.html]
[demo.naksoid.com/elephant-v1.2.0/theme-4/sliders.html]
[demo.naksoid.com/elephant-v1.2.0/theme-4/toggles.html]
[demo.naksoid.com/elephant-v1.2.0/theme-4/uploader.html]
[demo.naksoid.com/elephant-v1.2.0/theme-4/static-tables.html]
[demo.naksoid.com/elephant-v1.2.0/theme-4/responsive-tables.html]
[demo.naksoid.com/elephant-v1.2.0/theme-4/bootstrap-tables.html]
[demo.naksoid.com/elephant-v1.2.0/theme-4/datatables.html]
[demo.naksoid.com/elephant-v1.2.0/theme-4/datatables-buttons.html]
[demo.naksoid.com/elephant-v1.2.0/theme-4/datatables-responsive.html]
[demo.naksoid.com/elephant-v1.2.0/theme-4/datatables-fixedheader.html]
[demo.naksoid.com/elephant-v1.2.0/theme-4/datatables-rowreorder.html]
[demo.naksoid.com/elephant-v1.2.0/theme-4/datatables-colreorder.html]
[demo.naksoid.com/elephant-v1.2.0/theme-4/datatables-scroller.html]
[demo.naksoid.com/elephant-v1.2.0/theme-4/peity.html]
[demo.naksoid.com/elephant-v1.2.0/theme-4/chartjs.html]
[demo.naksoid.com/elephant-v1.2.0/theme-4/vector-maps.html]
[demo.naksoid.com/elephant-v1.2.0/theme-4/google-maps.html]
[demo.naksoid.com/elephant-v1.2.0/theme-4/signup-2.html]
[demo.naksoid.com/elephant-v1.2.0/theme-4/signup-3.html]
[demo.naksoid.com/elephant-v1.2.0/theme-4/login-2.html]
[demo.naksoid.com/elephant-v1.2.0/theme-4/login-3.html]
[demo.naksoid.com/elephant-v1.2.0/theme-4/password-1.html]
[demo.naksoid.com/elephant-v1.2.0/theme-4/password-2.html]
[demo.naksoid.com/elephant-v1.2.0/theme-4/password-3.html]
[demo.naksoid.com/elephant-v1.2.0/theme-4/mail.html]
[demo.naksoid.com/elephant-v1.2.0/theme-4/inbox.html]
[demo.naksoid.com/elephant-v1.2.0/theme-4/messenger.html]
[demo.naksoid.com/elephant-v1.2.0/theme-4/drive.html]
[demo.naksoid.com/elephant-v1.2.0/theme-4/landing-page.html]
[demo.naksoid.com/elephant-v1.2.0/theme-4/store.html]
[demo.naksoid.com/elephant-v1.2.0/theme-4/shopping-cart.html]
[demo.naksoid.com/elephant-v1.2.0/theme-4/product.html]
[demo.naksoid.com/elephant-v1.2.0/theme-4/blank-page.html]
[demo.naksoid.com/elephant-v1.2.0/theme-4/404.html]
[demo.naksoid.com/elephant-v1.2.0/theme-4/500.html]
[demo.naksoid.com/elephant-v1.2.0/theme-4/invoice.html]
[demo.naksoid.com/elephant-v1.2.0/theme-4/img/9722110524.jpg]
[demo.naksoid.com/elephant-v1.2.0/theme-4/img/9870681590.jpg]
[demo.naksoid.com/elephant-v1.2.0/theme-4/img/9964167452.jpg]
[demo.naksoid.com/elephant-v1.2.0/theme-4/index-2.html]
[demo.naksoid.com/elephant-v1.2.0/theme-4/img/1007517980.jpg]
[demo.naksoid.com/elephant-v1.2.0/theme-4/img/1015664515.jpg]
[demo.naksoid.com/elephant-v1.2.0/theme-4/img/1025453682.jpg]
[demo.naksoid.com/elephant-v1.2.0/theme-4/img/1033422797.jpg]
[demo.naksoid.com/elephant-v1.2.0/theme-4/img/1044368407.jpg]
[demo.naksoid.com/elephant-v1.2.0/theme-4/img/1050099119.jpg]
[demo.naksoid.com/elephant-v1.2.0/theme-4/img/1067123558.jpg]
[demo.naksoid.com/elephant-v1.2.0/theme-4/js/application.min.js]
[demo.naksoid.com/elephant-v1.2.0/theme-4/js/elephant.min.js]
[www.google-analytics.com/analytics.js]
[demo.naksoid.com/elephant-v1.2.0/theme-4/modals.html]
[demo.naksoid.com/elephant-v1.2.0/theme-4/safari-pinned-tab.svg]
[demo.naksoid.com/elephant-v1.2.0/theme-4/css/vendor.min.css]
[demo.naksoid.com/elephant-v1.2.0/theme-4/fonts/fontawesome-webfont5b62.eot]
[demo.naksoid.com/elephant-v1.2.0/theme-4/fonts/fontawesome-webfontd41d.eot]
[demo.naksoid.com/elephant-v1.2.0/theme-4/fonts/fontawesome-webfont5b62.woff]
[demo.naksoid.com/elephant-v1.2.0/theme-4/css/elephant.min.css]
[demo.naksoid.com/elephant-v1.2.0/theme-4/css/application.min.css]
[demo.naksoid.com/elephant-v1.2.0/theme-4/index.html]
[demo.naksoid.com/elephant-v1.2.0/theme-4/img/logo-inverse.svg]
[demo.naksoid.com/elephant-v1.2.0/theme-4/css/compose.min.css]
[demo.naksoid.com/elephant-v1.2.0/theme-4/compose.html]
[demo.naksoid.com/elephant-v1.2.0/theme-4/upgrade.html]
[demo.naksoid.com/elephant-v1.2.0/theme-4/js/compose.min.js]
[demo.naksoid.com/elephant-v1.2.0/theme-4/css/contacts.min.css]
[demo.naksoid.com/elephant-v1.2.0/theme-4/img/3002121059.jpg]
[demo.naksoid.com/elephant-v1.2.0/theme-4/img/2995015682.jpg]
[demo.naksoid.com/elephant-v1.2.0/theme-4/img/2832982242.jpg]
[demo.naksoid.com/elephant-v1.2.0/theme-4/img/1554502810.jpg]
[demo.naksoid.com/elephant-v1.2.0/theme-4/img/1463296788.jpg]
[demo.naksoid.com/elephant-v1.2.0/theme-4/img/2790515408.jpg]
[demo.naksoid.com/elephant-v1.2.0/theme-4/img/1376812548.jpg]
[demo.naksoid.com/elephant-v1.2.0/theme-4/img/2621512521.jpg]
[demo.naksoid.com/elephant-v1.2.0/theme-4/img/2565559510.jpg]
[demo.naksoid.com/elephant-v1.2.0/theme-4/img/2440513918.jpg]
[demo.naksoid.com/elephant-v1.2.0/theme-4/img/2362153679.jpg]
[demo.naksoid.com/elephant-v1.2.0/theme-4/img/2234124529.jpg]
[demo.naksoid.com/elephant-v1.2.0/theme-4/img/1182824800.jpg]
[demo.naksoid.com/elephant-v1.2.0/theme-4/img/2163317912.jpg]
[demo.naksoid.com/elephant-v1.2.0/theme-4/img/1099386850.jpg]
[demo.naksoid.com/elephant-v1.2.0/theme-4/img/2079247459.jpg]
[demo.naksoid.com/elephant-v1.2.0/theme-4/img/1968946964.jpg]
[demo.naksoid.com/elephant-v1.2.0/theme-4/img/1272501223.jpg]
[demo.naksoid.com/elephant-v1.2.0/theme-4/img/1823060748.jpg]
[demo.naksoid.com/elephant-v1.2.0/theme-4/img/1703835345.jpg]
[demo.naksoid.com/elephant-v1.2.0/theme-4/img/1699893867.jpg]
[demo.naksoid.com/elephant-v1.2.0/theme-4/contacts.html]
[demo.naksoid.com/elephant-v1.2.0/theme-4/js/contacts.min.js]
[demo.naksoid.com/elephant-v1.2.0/theme-4/css/profile.min.css]
[demo.naksoid.com/elephant-v1.2.0/theme-4/img/5037874725.jpg]
[demo.naksoid.com/elephant-v1.2.0/theme-4/img/5171142011.jpg]
[demo.naksoid.com/elephant-v1.2.0/theme-4/img/5285117345.jpg]
[demo.naksoid.com/elephant-v1.2.0/theme-4/img/5345655041.jpg]
[demo.naksoid.com/elephant-v1.2.0/theme-4/img/5477829604.jpg]
[demo.naksoid.com/elephant-v1.2.0/theme-4/img/5595140688.jpg]
[demo.naksoid.com/elephant-v1.2.0/theme-4/js/vendor.min.js]
[demo.naksoid.com/elephant-v1.2.0/theme-4/js/profile.min.js]
[demo.naksoid.com/elephant-v1.2.0/theme-4/profile.html]
[demo.naksoid.com/elephant-v1.2.0/theme-4/css/login-1.min.css]
[demo.naksoid.com/elephant-v1.2.0/theme-4/login-1.html]
[demo.naksoid.com/elephant-v1.2.0/theme-4/dashboard-1.html]
[demo.naksoid.com/elephant-v1.2.0/theme-4/img/5615854990.jpg]
[demo.naksoid.com/elephant-v1.2.0/theme-4/img/5991713086.jpg]
[demo.naksoid.com/elephant-v1.2.0/theme-4/img/6501906268.jpg]
[demo.naksoid.com/elephant-v1.2.0/theme-4/img/5774898501.jpg]
[demo.naksoid.com/elephant-v1.2.0/theme-4/img/6711938749.jpg]
[demo.naksoid.com/elephant-v1.2.0/theme-4/dashboard-2.html]
[demo.naksoid.com/elephant-v1.2.0/theme-4/css/dashboard-3.min.css]
[demo.naksoid.com/elephant-v1.2.0/theme-4/dashboard-3.html]
[demo.naksoid.com/elephant-v1.2.0/theme-4/css/demo.min.css]
[demo.naksoid.com/elephant-v1.2.0/theme-4/img/7225550528.jpg]
[demo.naksoid.com/elephant-v1.2.0/theme-4/img/7397509215.jpg]
[demo.naksoid.com/elephant-v1.2.0/theme-4/img/7457956311.png]
[demo.naksoid.com/elephant-v1.2.0/theme-4/img/7575559379.jpg]
[demo.naksoid.com/elephant-v1.2.0/theme-4/img/7690704672.jpg]
[demo.naksoid.com/elephant-v1.2.0/theme-4/img/7795524868.jpg]
[demo.naksoid.com/elephant-v1.2.0/theme-4/img/7808910503.jpg]
[demo.naksoid.com/elephant-v1.2.0/theme-4/js/demo.min.js]
[demo.naksoid.com/elephant-v1.2.0/theme-4/widgets.html]
[demo.naksoid.com/elephant-v1.2.0/theme-4/static-layout.html]
[demo.naksoid.com/elephant-v1.2.0/theme-4/img/8907917568.png]
[demo.naksoid.com/elephant-v1.2.0/theme-4/static-layout-with-footer.html]
[demo.naksoid.com/elephant-v1.2.0/theme-4/img/9066377313.png]
[demo.naksoid.com/elephant-v1.2.0/theme-4/sidebar-sticky.html]
[demo.naksoid.com/elephant-v1.2.0/theme-4/img/9193364282.png]
[demo.naksoid.com/elephant-v1.2.0/theme-4/sidebar-sticky-collapsed.html]
[demo.naksoid.com/elephant-v1.2.0/theme-4/img/9248739560.png]
[demo.naksoid.com/elephant-v1.2.0/theme-4/header-fixed.html]
[demo.naksoid.com/elephant-v1.2.0/theme-4/img/9346320298.png]
[demo.naksoid.com/elephant-v1.2.0/theme-4/header-and-sidebar-fixed.html]
[demo.naksoid.com/elephant-v1.2.0/theme-4/img/9438147354.png]
[demo.naksoid.com/elephant-v1.2.0/theme-4/footer-fixed.html]
[demo.naksoid.com/elephant-v1.2.0/theme-4/img/9540314125.png]
[demo.naksoid.com/elephant-v1.2.0/theme-4/img/9620101696.png]
[demo.naksoid.com/elephant-v1.2.0/theme-4/page-layouts.html]
[demo.naksoid.com/elephant-v1.2.0/theme-4/arrows.html]
[demo.naksoid.com/elephant-v1.2.0/theme-4/badges.html]
[demo.naksoid.com/elephant-v1.2.0/theme-4/buttons.html]
[demo.naksoid.com/elephant-v1.2.0/theme-4/img/7943544458.jpg]
[demo.naksoid.com/elephant-v1.2.0/theme-4/img/8077136002.jpg]
[demo.naksoid.com/elephant-v1.2.0/theme-4/img/8160313374.jpg]
[demo.naksoid.com/elephant-v1.2.0/theme-4/img/8244439665.jpg]
[demo.naksoid.com/elephant-v1.2.0/theme-4/img/8335744038.jpg]
[demo.naksoid.com/elephant-v1.2.0/theme-4/img/8447261358.jpg]
[demo.naksoid.com/elephant-v1.2.0/theme-4/img/8525358731.jpg]
[demo.naksoid.com/elephant-v1.2.0/theme-4/cards.html]
[demo.naksoid.com/elephant-v1.2.0/theme-4/dividers.html]
[demo.naksoid.com/elephant-v1.2.0/theme-4/files.html]
[demo.naksoid.com/elephant-v1.2.0/theme-4/flags.html]
[demo.naksoid.com/elephant-v1.2.0/theme-4/grid-system.html]
[demo.naksoid.com/elephant-v1.2.0/theme-4/icons.html]
[demo.naksoid.com/elephant-v1.2.0/theme-4/labels.html]
[demo.naksoid.com/elephant-v1.2.0/theme-4/lists.html]
[demo.naksoid.com/elephant-v1.2.0/theme-4/pricing-cards.html]
[demo.naksoid.com/elephant-v1.2.0/theme-4/progress-bars.html]
[demo.naksoid.com/elephant-v1.2.0/theme-4/spinners.html]
[demo.naksoid.com/elephant-v1.2.0/theme-4/tabs.html]
[demo.naksoid.com/elephant-v1.2.0/theme-4/toastr.html]
[demo.naksoid.com/elephant-v1.2.0/theme-4/img/8898319262.jpg]
[demo.naksoid.com/elephant-v1.2.0/theme-4/typography.html]
[demo.naksoid.com/elephant-v1.2.0/theme-4/img/8694637414.jpg]
[demo.naksoid.com/elephant-v1.2.0/theme-4/cropper.html]
[demo.naksoid.com/elephant-v1.2.0/theme-4/form-controls.html]
[demo.naksoid.com/elephant-v1.2.0/theme-4/form-layouts.html]
[demo.naksoid.com/elephant-v1.2.0/theme-4/form-validation.html]
[demo.naksoid.com/elephant-v1.2.0/theme-4/form-wizard.html]
[demo.naksoid.com/elephant-v1.2.0/theme-4/input-mask.html]
[demo.naksoid.com/elephant-v1.2.0/theme-4/md-form-controls.html]
[demo.naksoid.com/elephant-v1.2.0/theme-4/md-form-validation.html]
[demo.naksoid.com/elephant-v1.2.0/theme-4/pickers.html]
[demo.naksoid.com/elephant-v1.2.0/theme-4/select2.html]
[demo.naksoid.com/elephant-v1.2.0/theme-4/img/8796828207.png]
[demo.naksoid.com/elephant-v1.2.0/theme-4/sliders.html]
[demo.naksoid.com/elephant-v1.2.0/theme-4/toggles.html]
[demo.naksoid.com/elephant-v1.2.0/theme-4/uploader.html]
[demo.naksoid.com/elephant-v1.2.0/theme-4/static-tables.html]
[demo.naksoid.com/elephant-v1.2.0/theme-4/responsive-tables.html]
[demo.naksoid.com/elephant-v1.2.0/theme-4/bootstrap-tables.html]
[demo.naksoid.com/elephant-v1.2.0/theme-4/datatables.html]
[demo.naksoid.com/elephant-v1.2.0/theme-4/datatables-buttons.html]
[demo.naksoid.com/elephant-v1.2.0/theme-4/datatables-responsive.html]
[demo.naksoid.com/elephant-v1.2.0/theme-4/datatables-fixedheader.html]
[demo.naksoid.com/elephant-v1.2.0/theme-4/datatables-rowreorder.html]
[demo.naksoid.com/elephant-v1.2.0/theme-4/datatables-colreorder.html]
[demo.naksoid.com/elephant-v1.2.0/theme-4/datatables-scroller.html]
[demo.naksoid.com/elephant-v1.2.0/theme-4/peity.html]
[demo.naksoid.com/elephant-v1.2.0/theme-4/chartjs.html]
[demo.naksoid.com/elephant-v1.2.0/theme-4/img/3353100198.jpg]
[demo.naksoid.com/elephant-v1.2.0/theme-4/img/3476962581.jpg]
[demo.naksoid.com/elephant-v1.2.0/theme-4/vector-maps.html]
[demo.naksoid.com/elephant-v1.2.0/theme-4/google-maps.html]
[demo.naksoid.com/elephant-v1.2.0/theme-4/signup-1.html]
[demo.naksoid.com/elephant-v1.2.0/theme-4/css/signup-2.min.css]
[demo.naksoid.com/elephant-v1.2.0/theme-4/signup-2.html]
[demo.naksoid.com/elephant-v1.2.0/theme-4/css/signup-3.min.css]
[demo.naksoid.com/elephant-v1.2.0/theme-4/signup-3.html]
[demo.naksoid.com/elephant-v1.2.0/theme-4/css/login-2.min.css]
[demo.naksoid.com/elephant-v1.2.0/theme-4/login-2.html]
[demo.naksoid.com/elephant-v1.2.0/theme-4/css/login-3.min.css]
[demo.naksoid.com/elephant-v1.2.0/theme-4/login-3.html]
[demo.naksoid.com/elephant-v1.2.0/theme-4/password-1.html]
[demo.naksoid.com/elephant-v1.2.0/theme-4/password-2.html]
[demo.naksoid.com/elephant-v1.2.0/theme-4/password-3.html]
[demo.naksoid.com/elephant-v1.2.0/theme-4/css/mail.min.css]
[demo.naksoid.com/elephant-v1.2.0/theme-4/mail.html]
[demo.naksoid.com/elephant-v1.2.0/theme-4/js/mail.min.js]
[demo.naksoid.com/elephant-v1.2.0/theme-4/css/inbox.min.css]
[demo.naksoid.com/elephant-v1.2.0/theme-4/inbox.html]
[demo.naksoid.com/elephant-v1.2.0/theme-4/js/inbox.min.js]
[demo.naksoid.com/elephant-v1.2.0/theme-4/css/messenger.min.css]
[demo.naksoid.com/elephant-v1.2.0/theme-4/messenger.html]
[demo.naksoid.com/elephant-v1.2.0/theme-4/js/messenger.min.js]
[demo.naksoid.com/elephant-v1.2.0/theme-4/css/drive.min.css]
[demo.naksoid.com/elephant-v1.2.0/theme-4/drive.html]
[demo.naksoid.com/elephant-v1.2.0/theme-4/js/drive.min.js]
[demo.naksoid.com/elephant-v1.2.0/theme-4/css/landing-page.min.css]
[demo.naksoid.com/elephant-v1.2.0/theme-4/img/4299815763.png]
[demo.naksoid.com/elephant-v1.2.0/theme-4/img/4337135755.png]
[demo.naksoid.com/elephant-v1.2.0/theme-4/img/4460638882.png]
[demo.naksoid.com/elephant-v1.2.0/theme-4/img/4522104820.png]
[demo.naksoid.com/elephant-v1.2.0/theme-4/img/4608823220.png]
[demo.naksoid.com/elephant-v1.2.0/theme-4/img/4790827186.png]
[demo.naksoid.com/elephant-v1.2.0/theme-4/landing-page.html]
[demo.naksoid.com/elephant-v1.2.0/theme-4/js/landing-page.min.js]
[demo.naksoid.com/elephant-v1.2.0/theme-4/css/store.min.css]
[demo.naksoid.com/elephant-v1.2.0/theme-4/img/5892565850.jpg]
[demo.naksoid.com/elephant-v1.2.0/theme-4/img/6049281045.jpg]
[demo.naksoid.com/elephant-v1.2.0/theme-4/img/6149937996.jpg]
[demo.naksoid.com/elephant-v1.2.0/theme-4/img/6298374167.jpg]
[demo.naksoid.com/elephant-v1.2.0/theme-4/img/6381079466.jpg]
[demo.naksoid.com/elephant-v1.2.0/theme-4/img/6482952761.jpg]
[demo.naksoid.com/elephant-v1.2.0/theme-4/img/6621353903.jpg]
[demo.naksoid.com/elephant-v1.2.0/theme-4/store.html]
[demo.naksoid.com/elephant-v1.2.0/theme-4/css/shopping-cart.min.css]
[demo.naksoid.com/elephant-v1.2.0/theme-4/shopping-cart.html]
[demo.naksoid.com/elephant-v1.2.0/theme-4/css/product.min.css]
[demo.naksoid.com/elephant-v1.2.0/theme-4/img/6858253787.jpg]
[demo.naksoid.com/elephant-v1.2.0/theme-4/img/6950484109.jpg]
[demo.naksoid.com/elephant-v1.2.0/theme-4/img/7045565015.jpg]
[demo.naksoid.com/elephant-v1.2.0/theme-4/img/7154941405.jpg]
[demo.naksoid.com/elephant-v1.2.0/theme-4/js/product.min.js]
[demo.naksoid.com/elephant-v1.2.0/theme-4/product.html]
[demo.naksoid.com/elephant-v1.2.0/theme-4/blank-page.html]
[demo.naksoid.com/elephant-v1.2.0/theme-4/css/errors.min.css]
[demo.naksoid.com/elephant-v1.2.0/theme-4/404.html]
[demo.naksoid.com/elephant-v1.2.0/theme-4/500.html]
[demo.naksoid.com/elephant-v1.2.0/theme-4/invoice.html]
[demo.naksoid.com/elephant-v1.2.0/theme-4/index-2.html]
[demo.naksoid.com/elephant-v1.2.0/theme-4/fonts/fontawesome-webfont5b62.html]
[demo.naksoid.com/elephant-v1.2.0/theme-4/fonts/fontawesome-webfont5b62-2.html]
[demo.naksoid.com/elephant-v1.2.0/theme-4/fonts/fontawesome-webfont5b62.svg]
[demo.naksoid.com/elephant-v1.2.0/theme-4/css/compose.min.css]
[demo.naksoid.com/elephant-v1.2.0/theme-4/css/contacts.min.css]
[demo.naksoid.com/elephant-v1.2.0/theme-4/img/4902540768.jpg]
[demo.naksoid.com/elephant-v1.2.0/theme-4/css/profile.min.css]
[demo.naksoid.com/elephant-v1.2.0/theme-4/css/login-1.min.css]
[demo.naksoid.com/elephant-v1.2.0/theme-4/img/logo.svg]
[demo.naksoid.com/elephant-v1.2.0/theme-4/css/dashboard-3.min.css]
[demo.naksoid.com/elephant-v1.2.0/theme-4/css/demo.min.css]
[demo.naksoid.com/elephant-v1.2.0/theme-4/static-layout.html]
[demo.naksoid.com/elephant-v1.2.0/theme-4/static-layout-with-footer.html]
[demo.naksoid.com/elephant-v1.2.0/theme-4/sidebar-sticky.html]
[demo.naksoid.com/elephant-v1.2.0/theme-4/sidebar-sticky-collapsed.html]
[demo.naksoid.com/elephant-v1.2.0/theme-4/header-fixed.html]
[demo.naksoid.com/elephant-v1.2.0/theme-4/header-and-sidebar-fixed.html]
[demo.naksoid.com/elephant-v1.2.0/theme-4/footer-fixed.html]
[demo.naksoid.com/elephant-v1.2.0/theme-4/0310728269.html]
[demo.naksoid.com/elephant-v1.2.0/theme-4/0460697039.html]
[demo.naksoid.com/elephant-v1.2.0/theme-4/0531871454.html]
[demo.naksoid.com/elephant-v1.2.0/theme-4/0601274412.html]
[demo.naksoid.com/elephant-v1.2.0/theme-4/0777931269.html]
[demo.naksoid.com/elephant-v1.2.0/theme-4/0872116906.html]
[demo.naksoid.com/elephant-v1.2.0/theme-4/0980726243.html]
[demo.naksoid.com/elephant-v1.2.0/theme-4/1099386850.html]
[demo.naksoid.com/elephant-v1.2.0/theme-4/1182824800.html]
[demo.naksoid.com/elephant-v1.2.0/theme-4/1376812548.html]
[demo.naksoid.com/elephant-v1.2.0/theme-4/1463296788.html]
[demo.naksoid.com/elephant-v1.2.0/theme-4/1554502810.html]
[demo.naksoid.com/elephant-v1.2.0/theme-4/1699893867.html]
[demo.naksoid.com/elephant-v1.2.0/theme-4/1703835345.html]
[demo.naksoid.com/elephant-v1.2.0/theme-4/1823060748.html]
[demo.naksoid.com/elephant-v1.2.0/theme-4/password.html]
[demo.naksoid.com/elephant-v1.2.0/theme-4/img/flags/4x3/cn.svg]
[demo.naksoid.com/elephant-v1.2.0/theme-4/img/flags/4x3/in.svg]
[demo.naksoid.com/elephant-v1.2.0/theme-4/img/flags/4x3/us.svg]
[demo.naksoid.com/elephant-v1.2.0/theme-4/img/flags/4x3/id.svg]
[demo.naksoid.com/elephant-v1.2.0/theme-4/img/flags/4x3/br.svg]
[demo.naksoid.com/elephant-v1.2.0/theme-4/img/flags/4x3/pk.svg]
[demo.naksoid.com/elephant-v1.2.0/theme-4/img/flags/4x3/ng.svg]
[demo.naksoid.com/elephant-v1.2.0/theme-4/img/flags/4x3/bd.svg]
[demo.naksoid.com/elephant-v1.2.0/theme-4/img/flags/4x3/ru.svg]
[demo.naksoid.com/elephant-v1.2.0/theme-4/img/flags/4x3/mx.svg]
[demo.naksoid.com/elephant-v1.2.0/theme-4/css/signup-2.min.css]
[demo.naksoid.com/elephant-v1.2.0/theme-4/css/signup-3.min.css]
[demo.naksoid.com/elephant-v1.2.0/theme-4/css/login-2.min.css]
[demo.naksoid.com/elephant-v1.2.0/theme-4/css/login-3.min.css]
[demo.naksoid.com/elephant-v1.2.0/theme-4/css/mail.min.css]
[demo.naksoid.com/elephant-v1.2.0/theme-4/css/inbox.min.css]
[demo.naksoid.com/elephant-v1.2.0/theme-4/css/messenger.min.css]
[demo.naksoid.com/elephant-v1.2.0/theme-4/7943544458.html]
[demo.naksoid.com/elephant-v1.2.0/theme-4/8077136002.html]
[demo.naksoid.com/elephant-v1.2.0/theme-4/css/drive.min.css]
[demo.naksoid.com/elephant-v1.2.0/theme-4/img/4148866741.png]
[demo.naksoid.com/elephant-v1.2.0/theme-4/img/4818875210.jpg]
[demo.naksoid.com/elephant-v1.2.0/theme-4/css/landing-page.min.css]
[demo.naksoid.com/elephant-v1.2.0/theme-4/css/store.min.css]
[demo.naksoid.com/elephant-v1.2.0/theme-4/css/shopping-cart.min.css]
[demo.naksoid.com/elephant-v1.2.0/theme-4/css/product.min.css]
[demo.naksoid.com/elephant-v1.2.0/theme-4/css/errors.min.css]
